; XILINX CORE Generator(tm)Distributed Arithmetic FIR filter coefficient (.COE) File
; Generated by MATLAB(R) 9.2 and the DSP System Toolbox 9.4.
; Generated on: 03-Dec-2018 17:19:11
Radix = 16; 
Coefficient_Width = 16; 
CoefData = ff47,
fb19,
fe0a,
fff6,
035b,
05a3,
04c2,
fffc,
f914,
f40c,
f576,
0004,
12a0,
282e,
3969,
3ffc,
3969,
282e,
12a0,
0004,
f576,
f40c,
f914,
fffc,
04c2,
05a3,
035b,
fff6,
fe0a,
fb19,
ff47;
